…
plambda <- as_draws_df(ps$draws(variables = c("lambda"))) %>%
  as_tibble() %>%
  pivot_longer(starts_with("lambda"), names_to = "species", names_pattern = "^lambda\\[([0-9]+)\\]",
               values_to = "lambda", names_transform = list(species = as.integer)) %>%
  mutate(species = letters[species])

## examine posterior distribution vs. true values
# c(lambda = lambda, alpha = alpha)  # true values
summarize_draws(ps$draws(variables = c("lambda", "alpha")))  # posterior summary
```

    ## # A tibble: 30 x 10
    ##    variable    mean  median      sd     mad      q5     q95  rhat ess_bulk
    ##    <chr>      <dbl>   <dbl>   <dbl>   <dbl>   <dbl>   <dbl> <dbl>    <dbl>
    ##  1 lambda[… 1.20e+3 1.20e+3 11.2    11.5    1.18e+3 1.21e+3 1.00     2346.
    ##  2 lambda[… 3.75e+2 3.75e+2  5.96    6.10   3.65e+2 3.85e+2 0.999    1836.
    ##  3 lambda[… 4.66e+2 4.65e+2  7.02    6.93   4.54e+2 4.77e+2 1.00     1715.
    ##  4 lambda[… 4.27e+3 4.27e+3 19.7    19.7    4.24e+3 4.30e+3 1.00     2073.
    ##  5 lambda[… 1.08e+2 1.07e+2  3.22    3.25   1.02e+2 1.13e+2 1.00     1902.
    ##  6 alpha[1… 8.48e-1 8.49e-1  0.0336  0.0334 7.93e-1 9.04e-1 1.00     1991.
    ##  7 alpha[2… 1.19e+0 1.18e+0  0.0718  0.0749 1.08e+0 1.31e+0 1.00     2165.
    ##  8 alpha[3… 1.33e+0 1.32e+0  0.0733  0.0724 1.21e+0 1.45e+0 1.00     2265.
    ##  9 alpha[4… 9.27e-1 9.26e-1  0.0214  0.0218 8.92e-1 9.62e-1 1.00     1959.
    ## 10 alpha[5… 2.00e+0 1.99e+0  0.225   0.220  1.66e+0 2.41e+0 1.00     2419.
    ## # … with 20 more rows, and 1 more variable: ess_tail <dbl>
…
