…
## examine pairwise views of posterior distribution
summarize_draws(pdraws)  # posterior summary
```

    ## # A tibble: 91 x 10
    ##    variable     mean   median      sd     mad       q5      q95  rhat ess_bulk
    ##    <chr>       <dbl>    <dbl>   <dbl>   <dbl>    <dbl>    <dbl> <dbl>    <dbl>
    ##  1 lp__     -14.0    -13.6    2.17    2.03    -18.2    -11.2     1.00    1350.
    ##  2 alpha      0.546    0.541  0.0659  0.0636    0.444    0.659   1.00     887.
    ##  3 beta       0.0276   0.0273 0.00433 0.00415   0.0211   0.0352  1.00     968.
    ##  4 gamma      0.803    0.799  0.0939  0.0897    0.663    0.965   1.00     864.
    ##  5 delta      0.0242   0.0239 0.00372 0.00356   0.0187   0.0306  1.00     893.
    ##  6 z[0,1]    34.0     33.9    2.99    3.01     29.3     39.1     1.00    2676.
    ##  7 z[0,2]     5.94     5.92   0.551   0.509     5.08     6.86    1.00    1773.
    ##  8 sigma[1]   0.248    0.242  0.0424  0.0394    0.189    0.324   1.00    3256.
    ##  9 sigma[2]   0.253    0.246  0.0439  0.0401    0.195    0.335   1.00    2372.
    ## 10 z[1,1]    49.3     49.0    4.63    4.64     42.2     57.2     1.00    1919.
    ## # … with 81 more rows, and 1 more variable: ess_tail <dbl>
…
